<?xml version="1.0" encoding="UTF-8" standalone="no"?>
<!DOCTYPE svg PUBLIC "-//W3C//DTD SVG 1.1//EN"
 "http://www.w3.org/Graphics/SVG/1.1/DTD/svg11.dtd">
<!-- Generated by graphviz version 5.0.0 (20220707.1540)
 -->
<!-- Title: dummy Pages: 1 -->
<svg width="1216pt" height="556pt"
 viewBox="0.00 0.00 1215.71 556.00" xmlns="http://www.w3.org/2000/svg" xmlns:xlink="http://www.w3.org/1999/xlink">
<g id="graph0" class="graph" transform="scale(1 1) rotate(0) translate(4 552)">
<title>dummy</title>
<polygon fill="white" stroke="transparent" points="-4,4 -4,-552 1211.71,-552 1211.71,4 -4,4"/>
<!-- lemmings -->
<g id="node1" class="node">
<title>lemmings</title>
<polygon fill="none" stroke="black" points="591.71,-0.5 591.71,-36.5 662.71,-36.5 662.71,-0.5 591.71,-0.5"/>
<text text-anchor="middle" x="627.21" y="-14.8" font-family="Times,serif" font-size="14.00">lemmings</text>
</g>
<!-- sandcastle -->
<g id="node2" class="node">
<title>sandcastle</title>
<polygon fill="cornsilk" stroke="cornsilk" points="478.21,-219.5 478.21,-255.5 550.21,-255.5 550.21,-219.5 478.21,-219.5"/>
<text text-anchor="middle" x="514.21" y="-233.8" font-family="Times,serif" font-size="14.00">sandcastle</text>
</g>
<!-- lemmings.chain.lemmingjob_base -->
<g id="node9" class="node">
<title>lemmings.chain.lemmingjob_base</title>
<polygon fill="#79cdcd" stroke="#79cdcd" points="518.21,-146.5 518.21,-182.5 724.21,-182.5 724.21,-146.5 518.21,-146.5"/>
<text text-anchor="middle" x="621.21" y="-160.8" font-family="Times,serif" font-size="14.00">lemmings.chain.lemmingjob_base</text>
</g>
<!-- sandcastle&#45;&gt;lemmings.chain.lemmingjob_base -->
<g id="edge38" class="edge">
<title>sandcastle&#45;&gt;lemmings.chain.lemmingjob_base</title>
<path fill="none" stroke="black" d="M539.84,-219.49C553.9,-210.17 571.52,-198.47 586.76,-188.36"/>
<polygon fill="black" stroke="black" points="589.02,-191.06 595.42,-182.61 585.15,-185.23 589.02,-191.06"/>
</g>
<!-- nob -->
<g id="node3" class="node">
<title>nob</title>
<polygon fill="none" stroke="black" stroke-dasharray="5,2" points="330.21,-219.5 330.21,-255.5 384.21,-255.5 384.21,-219.5 330.21,-219.5"/>
<text text-anchor="middle" x="357.21" y="-233.8" font-family="Times,serif" font-size="14.00">nob</text>
</g>
<!-- lock -->
<g id="node4" class="node">
<title>lock</title>
<polygon fill="none" stroke="black" stroke-dasharray="5,2" points="125.21,-0.5 125.21,-36.5 179.21,-36.5 179.21,-0.5 125.21,-0.5"/>
<text text-anchor="middle" x="152.21" y="-14.8" font-family="Times,serif" font-size="14.00">lock</text>
</g>
<!-- lemmings.sandbox.sandbox_cli -->
<g id="node5" class="node">
<title>lemmings.sandbox.sandbox_cli</title>
<polygon fill="#cdc8b1" stroke="#cdc8b1" points="435.71,-511.5 435.71,-547.5 624.71,-547.5 624.71,-511.5 435.71,-511.5"/>
<text text-anchor="middle" x="530.21" y="-525.8" font-family="Times,serif" font-size="14.00">lemmings.sandbox.sandbox_cli</text>
</g>
<!-- lemmings.sandbox.sandbox -->
<g id="node13" class="node">
<title>lemmings.sandbox.sandbox</title>
<polygon fill="#cdc8b1" stroke="#cdc8b1" points="363.71,-438.5 363.71,-474.5 532.71,-474.5 532.71,-438.5 363.71,-438.5"/>
<text text-anchor="middle" x="448.21" y="-452.8" font-family="Times,serif" font-size="14.00">lemmings.sandbox.sandbox</text>
</g>
<!-- lemmings.sandbox.sandbox_cli&#45;&gt;lemmings.sandbox.sandbox -->
<g id="edge36" class="edge">
<title>lemmings.sandbox.sandbox_cli&#45;&gt;lemmings.sandbox.sandbox</title>
<path fill="none" stroke="black" d="M510.36,-511.31C499.88,-502.24 486.87,-490.98 475.47,-481.1"/>
<polygon fill="black" stroke="black" points="477.73,-478.43 467.88,-474.53 473.15,-483.72 477.73,-478.43"/>
</g>
<!-- lemmings.cli_main -->
<g id="node25" class="node">
<title>lemmings.cli_main</title>
<polygon fill="bisque" stroke="bisque" points="550.71,-438.5 550.71,-474.5 673.71,-474.5 673.71,-438.5 550.71,-438.5"/>
<text text-anchor="middle" x="612.21" y="-452.8" font-family="Times,serif" font-size="14.00">lemmings.cli_main</text>
</g>
<!-- lemmings.sandbox.sandbox_cli&#45;&gt;lemmings.cli_main -->
<g id="edge37" class="edge">
<title>lemmings.sandbox.sandbox_cli&#45;&gt;lemmings.cli_main</title>
<path fill="none" stroke="black" d="M550.06,-511.31C560.53,-502.24 573.55,-490.98 584.95,-481.1"/>
<polygon fill="black" stroke="black" points="587.27,-483.72 592.54,-474.53 582.69,-478.43 587.27,-483.72"/>
</g>
<!-- numpy -->
<g id="node6" class="node">
<title>numpy</title>
<polygon fill="none" stroke="black" stroke-dasharray="5,2" points="218.71,-219.5 218.71,-255.5 273.71,-255.5 273.71,-219.5 218.71,-219.5"/>
<text text-anchor="middle" x="246.21" y="-233.8" font-family="Times,serif" font-size="14.00">numpy</text>
</g>
<!-- sandcastle_farm -->
<g id="node7" class="node">
<title>sandcastle_farm</title>
<polygon fill="cornsilk" stroke="cornsilk" points="568.71,-219.5 568.71,-255.5 673.71,-255.5 673.71,-219.5 568.71,-219.5"/>
<text text-anchor="middle" x="621.21" y="-233.8" font-family="Times,serif" font-size="14.00">sandcastle_farm</text>
</g>
<!-- sandcastle_farm&#45;&gt;lemmings.chain.lemmingjob_base -->
<g id="edge39" class="edge">
<title>sandcastle_farm&#45;&gt;lemmings.chain.lemmingjob_base</title>
<path fill="none" stroke="black" d="M621.21,-219.31C621.21,-211.29 621.21,-201.55 621.21,-192.57"/>
<polygon fill="black" stroke="black" points="624.71,-192.53 621.21,-182.53 617.71,-192.53 624.71,-192.53"/>
</g>
<!-- lemmings.base -->
<g id="node8" class="node">
<title>lemmings.base</title>
<polygon fill="none" stroke="black" points="642.71,-511.5 642.71,-547.5 741.71,-547.5 741.71,-511.5 642.71,-511.5"/>
<text text-anchor="middle" x="692.21" y="-525.8" font-family="Times,serif" font-size="14.00">lemmings.base</text>
</g>
<!-- lemmings.chain.lemmingsstop -->
<g id="node12" class="node">
<title>lemmings.chain.lemmingsstop</title>
<polygon fill="#79cdcd" stroke="#79cdcd" points="244.71,-73.5 244.71,-109.5 429.71,-109.5 429.71,-73.5 244.71,-73.5"/>
<text text-anchor="middle" x="337.21" y="-87.8" font-family="Times,serif" font-size="14.00">lemmings.chain.lemmingsstop</text>
</g>
<!-- lemmings.chain.lemmingjob_base&#45;&gt;lemmings.chain.lemmingsstop -->
<g id="edge13" class="edge">
<title>lemmings.chain.lemmingjob_base&#45;&gt;lemmings.chain.lemmingsstop</title>
<path fill="none" stroke="black" d="M553.18,-146.49C511.77,-136.14 458.72,-122.88 415.56,-112.09"/>
<polygon fill="black" stroke="black" points="416.21,-108.64 405.66,-109.61 414.52,-115.43 416.21,-108.64"/>
</g>
<!-- lemmings.base.database -->
<g id="node17" class="node">
<title>lemmings.base.database</title>
<polygon fill="#a2cd5a" stroke="#a2cd5a" points="77.71,-73.5 77.71,-109.5 226.71,-109.5 226.71,-73.5 77.71,-73.5"/>
<text text-anchor="middle" x="152.21" y="-87.8" font-family="Times,serif" font-size="14.00">lemmings.base.database</text>
</g>
<!-- lemmings.chain.lemmingjob_base&#45;&gt;lemmings.base.database -->
<g id="edge12" class="edge">
<title>lemmings.chain.lemmingjob_base&#45;&gt;lemmings.base.database</title>
<path fill="none" stroke="black" d="M518.1,-151.2C442.68,-141.74 337.71,-127.61 236.88,-110.23"/>
<polygon fill="black" stroke="black" points="237.27,-106.75 226.82,-108.49 236.07,-113.65 237.27,-106.75"/>
</g>
<!-- lemmings.base.path_tool -->
<g id="node26" class="node">
<title>lemmings.base.path_tool</title>
<polygon fill="#a2cd5a" stroke="#a2cd5a" points="576.21,-73.5 576.21,-109.5 730.21,-109.5 730.21,-73.5 576.21,-73.5"/>
<text text-anchor="middle" x="653.21" y="-87.8" font-family="Times,serif" font-size="14.00">lemmings.base.path_tool</text>
</g>
<!-- lemmings.chain.lemmingjob_base&#45;&gt;lemmings.base.path_tool -->
<g id="edge14" class="edge">
<title>lemmings.chain.lemmingjob_base&#45;&gt;lemmings.base.path_tool</title>
<path fill="none" stroke="black" d="M628.96,-146.31C632.69,-138.03 637.25,-127.91 641.4,-118.69"/>
<polygon fill="black" stroke="black" points="644.62,-120.08 645.53,-109.53 638.23,-117.21 644.62,-120.08"/>
</g>
<!-- lemmings.base.machine -->
<g id="node27" class="node">
<title>lemmings.base.machine</title>
<polygon fill="#a2cd5a" stroke="#a2cd5a" points="780.71,-73.5 780.71,-109.5 929.71,-109.5 929.71,-73.5 780.71,-73.5"/>
<text text-anchor="middle" x="855.21" y="-87.8" font-family="Times,serif" font-size="14.00">lemmings.base.machine</text>
</g>
<!-- lemmings.chain.lemmingjob_base&#45;&gt;lemmings.base.machine -->
<g id="edge15" class="edge">
<title>lemmings.chain.lemmingjob_base&#45;&gt;lemmings.base.machine</title>
<path fill="none" stroke="black" d="M677.26,-146.49C710.87,-136.29 753.8,-123.27 789.08,-112.57"/>
<polygon fill="black" stroke="black" points="790.25,-115.87 798.81,-109.61 788.22,-109.17 790.25,-115.87"/>
</g>
<!-- lemmings.chain -->
<g id="node10" class="node">
<title>lemmings.chain</title>
<polygon fill="none" stroke="black" points="760.21,-511.5 760.21,-547.5 864.21,-547.5 864.21,-511.5 760.21,-511.5"/>
<text text-anchor="middle" x="812.21" y="-525.8" font-family="Times,serif" font-size="14.00">lemmings.chain</text>
</g>
<!-- lemmings.chain.lemmingscmd -->
<g id="node11" class="node">
<title>lemmings.chain.lemmingscmd</title>
<polygon fill="#79cdcd" stroke="#79cdcd" points="691.71,-219.5 691.71,-255.5 878.71,-255.5 878.71,-219.5 691.71,-219.5"/>
<text text-anchor="middle" x="785.21" y="-233.8" font-family="Times,serif" font-size="14.00">lemmings.chain.lemmingscmd</text>
</g>
<!-- lemmings.chain.lemmingscmd&#45;&gt;lemmings.chain.lemmingjob_base -->
<g id="edge16" class="edge">
<title>lemmings.chain.lemmingscmd&#45;&gt;lemmings.chain.lemmingjob_base</title>
<path fill="none" stroke="black" d="M745.93,-219.49C723.17,-209.64 694.33,-197.16 670.11,-186.67"/>
<polygon fill="black" stroke="black" points="671.31,-183.37 660.74,-182.61 668.53,-189.8 671.31,-183.37"/>
</g>
<!-- prettytable -->
<g id="node14" class="node">
<title>prettytable</title>
<polygon fill="none" stroke="black" stroke-dasharray="5,2" points="233.21,-365.5 233.21,-401.5 307.21,-401.5 307.21,-365.5 233.21,-365.5"/>
<text text-anchor="middle" x="270.21" y="-379.8" font-family="Times,serif" font-size="14.00">prettytable</text>
</g>
<!-- lemmings.sandbox.sandbox&#45;&gt;prettytable -->
<g id="edge35" class="edge">
<title>lemmings.sandbox.sandbox&#45;&gt;prettytable</title>
<path fill="none" stroke="black" d="M405.57,-438.49C378.8,-427.81 344.26,-414.04 316.77,-403.07"/>
<polygon fill="black" stroke="black" points="317.95,-399.78 307.37,-399.32 315.36,-406.28 317.95,-399.78"/>
</g>
<!-- lemmings.base.user -->
<g id="node15" class="node">
<title>lemmings.base.user</title>
<polygon fill="#a2cd5a" stroke="#a2cd5a" points="475.71,-365.5 475.71,-401.5 600.71,-401.5 600.71,-365.5 475.71,-365.5"/>
<text text-anchor="middle" x="538.21" y="-379.8" font-family="Times,serif" font-size="14.00">lemmings.base.user</text>
</g>
<!-- lemmings.sandbox -->
<g id="node16" class="node">
<title>lemmings.sandbox</title>
<polygon fill="#cdc8b1" stroke="#cdc8b1" points="882.21,-511.5 882.21,-547.5 1002.21,-547.5 1002.21,-511.5 882.21,-511.5"/>
<text text-anchor="middle" x="942.21" y="-525.8" font-family="Times,serif" font-size="14.00">lemmings.sandbox</text>
</g>
<!-- lemmings.base.database&#45;&gt;lemmings -->
<g id="edge1" class="edge">
<title>lemmings.base.database&#45;&gt;lemmings</title>
<path fill="none" stroke="black" d="M226.82,-74.5C229.65,-73.98 232.45,-73.48 235.21,-73 359.86,-51.38 508.07,-33.18 581.41,-24.66"/>
<polygon fill="black" stroke="black" points="582.14,-28.1 591.67,-23.48 581.34,-21.15 582.14,-28.1"/>
</g>
<!-- lemmings.base.database&#45;&gt;lock -->
<g id="edge2" class="edge">
<title>lemmings.base.database&#45;&gt;lock</title>
<path fill="none" stroke="black" d="M152.21,-73.31C152.21,-65.29 152.21,-55.55 152.21,-46.57"/>
<polygon fill="black" stroke="black" points="155.71,-46.53 152.21,-36.53 148.71,-46.53 155.71,-46.53"/>
</g>
<!-- lemmings.cli_farming -->
<g id="node18" class="node">
<title>lemmings.cli_farming</title>
<polygon fill="bisque" stroke="bisque" points="135.71,-511.5 135.71,-547.5 274.71,-547.5 274.71,-511.5 135.71,-511.5"/>
<text text-anchor="middle" x="205.21" y="-525.8" font-family="Times,serif" font-size="14.00">lemmings.cli_farming</text>
</g>
<!-- lemmings.cli_farming&#45;&gt;lemmings.chain.lemmingsstop -->
<g id="edge23" class="edge">
<title>lemmings.cli_farming&#45;&gt;lemmings.chain.lemmingsstop</title>
<path fill="none" stroke="black" d="M172.53,-511.42C158.37,-502.41 142.86,-490.08 133.21,-475 111.05,-440.38 114.21,-425.6 114.21,-384.5 114.21,-384.5 114.21,-384.5 114.21,-309.5 114.21,-213.48 221.73,-146.18 287.45,-114.01"/>
<polygon fill="black" stroke="black" points="289.32,-117 296.83,-109.52 286.29,-110.68 289.32,-117"/>
</g>
<!-- lemmings.cli_farming&#45;&gt;lemmings.base.database -->
<g id="edge21" class="edge">
<title>lemmings.cli_farming&#45;&gt;lemmings.base.database</title>
<path fill="none" stroke="black" d="M151.44,-511.46C132.84,-503.14 113.39,-491.31 100.21,-475 74.06,-442.63 76.21,-426.11 76.21,-384.5 76.21,-384.5 76.21,-384.5 76.21,-236.5 76.21,-190.39 107.07,-144.57 129.46,-117.4"/>
<polygon fill="black" stroke="black" points="132.29,-119.47 136.09,-109.59 126.95,-114.94 132.29,-119.47"/>
</g>
<!-- lemmings.cli_status -->
<g id="node21" class="node">
<title>lemmings.cli_status</title>
<polygon fill="bisque" stroke="bisque" points="142.21,-438.5 142.21,-474.5 268.21,-474.5 268.21,-438.5 142.21,-438.5"/>
<text text-anchor="middle" x="205.21" y="-452.8" font-family="Times,serif" font-size="14.00">lemmings.cli_status</text>
</g>
<!-- lemmings.cli_farming&#45;&gt;lemmings.cli_status -->
<g id="edge22" class="edge">
<title>lemmings.cli_farming&#45;&gt;lemmings.cli_status</title>
<path fill="none" stroke="black" d="M205.21,-511.31C205.21,-503.29 205.21,-493.55 205.21,-484.57"/>
<polygon fill="black" stroke="black" points="208.71,-484.53 205.21,-474.53 201.71,-484.53 208.71,-484.53"/>
</g>
<!-- lemmings.chain.farming -->
<g id="node23" class="node">
<title>lemmings.chain.farming</title>
<polygon fill="#79cdcd" stroke="#79cdcd" points="270.21,-292.5 270.21,-328.5 422.21,-328.5 422.21,-292.5 270.21,-292.5"/>
<text text-anchor="middle" x="346.21" y="-306.8" font-family="Times,serif" font-size="14.00">lemmings.chain.farming</text>
</g>
<!-- lemmings.cli_farming&#45;&gt;lemmings.chain.farming -->
<g id="edge24" class="edge">
<title>lemmings.cli_farming&#45;&gt;lemmings.chain.farming</title>
<path fill="none" stroke="black" d="M233.9,-511.47C248.15,-502.01 264.91,-489.28 277.21,-475 312.2,-434.39 331.5,-373.45 340.28,-338.58"/>
<polygon fill="black" stroke="black" points="343.73,-339.19 342.67,-328.64 336.93,-337.55 343.73,-339.19"/>
</g>
<!-- lemmings.cli_farming&#45;&gt;lemmings.cli_main -->
<g id="edge25" class="edge">
<title>lemmings.cli_farming&#45;&gt;lemmings.cli_main</title>
<path fill="none" stroke="black" d="M275.01,-519.12C340.92,-509.88 442.7,-494.58 540.63,-475.02"/>
<polygon fill="black" stroke="black" points="541.6,-478.4 550.71,-472.99 540.21,-471.54 541.6,-478.4"/>
</g>
<!-- lemmings.cli -->
<g id="node19" class="node">
<title>lemmings.cli</title>
<polygon fill="bisque" stroke="bisque" points="11.71,-511.5 11.71,-547.5 100.71,-547.5 100.71,-511.5 11.71,-511.5"/>
<text text-anchor="middle" x="56.21" y="-525.8" font-family="Times,serif" font-size="14.00">lemmings.cli</text>
</g>
<!-- lemmings.cli&#45;&gt;lemmings.chain.lemmingsstop -->
<g id="edge19" class="edge">
<title>lemmings.cli&#45;&gt;lemmings.chain.lemmingsstop</title>
<path fill="none" stroke="black" d="M52.65,-511.3C47.41,-484.38 38.21,-430.61 38.21,-384.5 38.21,-384.5 38.21,-384.5 38.21,-236.5 38.21,-186.66 174.78,-138.41 263.32,-112.37"/>
<polygon fill="black" stroke="black" points="264.44,-115.69 273.07,-109.54 262.49,-108.97 264.44,-115.69"/>
</g>
<!-- lemmings.cli&#45;&gt;lemmings.base.database -->
<g id="edge17" class="edge">
<title>lemmings.cli&#45;&gt;lemmings.base.database</title>
<path fill="none" stroke="black" d="M44.25,-511.32C37.59,-501.14 29.59,-487.76 24.21,-475 8.04,-436.66 0.21,-426.11 0.21,-384.5 0.21,-384.5 0.21,-384.5 0.21,-236.5 0.21,-194.89 -3.14,-177.37 24.21,-146 36.56,-131.83 53.28,-121.33 70.55,-113.58"/>
<polygon fill="black" stroke="black" points="72.31,-116.63 80.18,-109.54 69.61,-110.18 72.31,-116.63"/>
</g>
<!-- lemmings.cli&#45;&gt;lemmings.cli_status -->
<g id="edge18" class="edge">
<title>lemmings.cli&#45;&gt;lemmings.cli_status</title>
<path fill="none" stroke="black" d="M91.9,-511.49C112.39,-501.73 138.31,-489.38 160.19,-478.95"/>
<polygon fill="black" stroke="black" points="161.77,-482.07 169.29,-474.61 158.76,-475.76 161.77,-482.07"/>
</g>
<!-- lemmings.cli&#45;&gt;lemmings.cli_main -->
<g id="edge20" class="edge">
<title>lemmings.cli&#45;&gt;lemmings.cli_main</title>
<path fill="none" stroke="black" d="M100.8,-516.23C109.19,-514.24 117.93,-512.38 126.21,-511 305.6,-480.99 356.77,-504.39 540.39,-474.97"/>
<polygon fill="black" stroke="black" points="541.07,-478.41 550.37,-473.34 539.94,-471.5 541.07,-478.41"/>
</g>
<!-- empty_workflow -->
<g id="node20" class="node">
<title>empty_workflow</title>
<polygon fill="none" stroke="black" points="1020.21,-511.5 1020.21,-547.5 1130.21,-547.5 1130.21,-511.5 1020.21,-511.5"/>
<text text-anchor="middle" x="1075.21" y="-525.8" font-family="Times,serif" font-size="14.00">empty_workflow</text>
</g>
<!-- lemmings.cli_status&#45;&gt;numpy -->
<g id="edge33" class="edge">
<title>lemmings.cli_status&#45;&gt;numpy</title>
<path fill="none" stroke="black" d="M208.43,-438.47C215.5,-401.01 232.48,-311.18 241.06,-265.76"/>
<polygon fill="black" stroke="black" points="244.53,-266.22 242.95,-255.75 237.65,-264.93 244.53,-266.22"/>
</g>
<!-- lemmings.cli_status&#45;&gt;prettytable -->
<g id="edge34" class="edge">
<title>lemmings.cli_status&#45;&gt;prettytable</title>
<path fill="none" stroke="black" d="M220.94,-438.31C229.01,-429.5 238.97,-418.63 247.82,-408.96"/>
<polygon fill="black" stroke="black" points="250.45,-411.27 254.62,-401.53 245.29,-406.54 250.45,-411.27"/>
</g>
<!-- lemmings.cli_status&#45;&gt;lemmings.base.database -->
<g id="edge32" class="edge">
<title>lemmings.cli_status&#45;&gt;lemmings.base.database</title>
<path fill="none" stroke="black" d="M194.23,-438.08C178.7,-411.74 152.21,-359.72 152.21,-311.5 152.21,-311.5 152.21,-311.5 152.21,-236.5 152.21,-195.93 152.21,-148.94 152.21,-119.96"/>
<polygon fill="black" stroke="black" points="155.71,-119.79 152.21,-109.79 148.71,-119.79 155.71,-119.79"/>
</g>
<!-- conftest -->
<g id="node22" class="node">
<title>conftest</title>
<polygon fill="none" stroke="black" points="1148.71,-511.5 1148.71,-547.5 1207.71,-547.5 1207.71,-511.5 1148.71,-511.5"/>
<text text-anchor="middle" x="1178.21" y="-525.8" font-family="Times,serif" font-size="14.00">conftest</text>
</g>
<!-- lemmings.chain.farming&#45;&gt;nob -->
<g id="edge7" class="edge">
<title>lemmings.chain.farming&#45;&gt;nob</title>
<path fill="none" stroke="black" d="M348.87,-292.31C350.12,-284.29 351.62,-274.55 353.02,-265.57"/>
<polygon fill="black" stroke="black" points="356.5,-265.95 354.57,-255.53 349.58,-264.88 356.5,-265.95"/>
</g>
<!-- lemmings.chain.farming&#45;&gt;numpy -->
<g id="edge8" class="edge">
<title>lemmings.chain.farming&#45;&gt;numpy</title>
<path fill="none" stroke="black" d="M322.26,-292.49C309.24,-283.25 292.96,-271.69 278.8,-261.64"/>
<polygon fill="black" stroke="black" points="280.49,-258.55 270.31,-255.61 276.44,-264.26 280.49,-258.55"/>
</g>
<!-- lemmings.chain.farming&#45;&gt;lemmings.chain.lemmingjob_base -->
<g id="edge9" class="edge">
<title>lemmings.chain.farming&#45;&gt;lemmings.chain.lemmingjob_base</title>
<path fill="none" stroke="black" d="M365.86,-292.15C389.17,-272.29 429.84,-239.82 469.21,-219 494.54,-205.61 523.93,-194.37 550.08,-185.7"/>
<polygon fill="black" stroke="black" points="551.49,-188.92 559.92,-182.51 549.33,-182.26 551.49,-188.92"/>
</g>
<!-- lemmings.chain.farming&#45;&gt;lemmings.chain.lemmingscmd -->
<g id="edge10" class="edge">
<title>lemmings.chain.farming&#45;&gt;lemmings.chain.lemmingscmd</title>
<path fill="none" stroke="black" d="M422.54,-297.66C488.54,-287.36 586.79,-271.87 681.52,-256.27"/>
<polygon fill="black" stroke="black" points="682.26,-259.69 691.56,-254.61 681.12,-252.79 682.26,-259.69"/>
</g>
<!-- lemmings.chain.farming&#45;&gt;lemmings.chain.lemmingsstop -->
<g id="edge11" class="edge">
<title>lemmings.chain.farming&#45;&gt;lemmings.chain.lemmingsstop</title>
<path fill="none" stroke="black" d="M335.84,-292.36C330.3,-282.19 324.05,-268.81 321.21,-256 310.72,-208.77 321.16,-152.34 329.39,-119.64"/>
<polygon fill="black" stroke="black" points="332.8,-120.46 331.96,-109.9 326.03,-118.68 332.8,-120.46"/>
</g>
<!-- lemmings.chain.chain -->
<g id="node24" class="node">
<title>lemmings.chain.chain</title>
<polygon fill="#79cdcd" stroke="#79cdcd" points="618.71,-365.5 618.71,-401.5 755.71,-401.5 755.71,-365.5 618.71,-365.5"/>
<text text-anchor="middle" x="687.21" y="-379.8" font-family="Times,serif" font-size="14.00">lemmings.chain.chain</text>
</g>
<!-- lemmings.chain.chain&#45;&gt;lemmings.chain.lemmingjob_base -->
<g id="edge3" class="edge">
<title>lemmings.chain.chain&#45;&gt;lemmings.chain.lemmingjob_base</title>
<path fill="none" stroke="black" d="M740.58,-365.4C816.28,-338.4 940.17,-282.41 888.21,-219 868.44,-194.88 798.13,-181.41 734.62,-174.02"/>
<polygon fill="black" stroke="black" points="734.82,-170.52 724.49,-172.89 734.04,-177.48 734.82,-170.52"/>
</g>
<!-- lemmings.chain.chain&#45;&gt;lemmings.chain.lemmingscmd -->
<g id="edge4" class="edge">
<title>lemmings.chain.chain&#45;&gt;lemmings.chain.lemmingscmd</title>
<path fill="none" stroke="black" d="M698.84,-365.42C715.93,-340.3 747.96,-293.23 767.85,-264.01"/>
<polygon fill="black" stroke="black" points="770.86,-265.8 773.6,-255.56 765.08,-261.86 770.86,-265.8"/>
</g>
<!-- lemmings.chain.chain&#45;&gt;lemmings.chain.lemmingsstop -->
<g id="edge5" class="edge">
<title>lemmings.chain.chain&#45;&gt;lemmings.chain.lemmingsstop</title>
<path fill="none" stroke="black" d="M648.65,-365.47C602.83,-344.08 525.52,-304.27 469.21,-256 420.52,-214.26 376.46,-152.75 353.62,-118.3"/>
<polygon fill="black" stroke="black" points="356.43,-116.2 348.02,-109.75 350.57,-120.03 356.43,-116.2"/>
</g>
<!-- lemmings.chain.chain&#45;&gt;lemmings.chain.farming -->
<g id="edge6" class="edge">
<title>lemmings.chain.chain&#45;&gt;lemmings.chain.farming</title>
<path fill="none" stroke="black" d="M618.32,-366.97C615.24,-366.3 612.19,-365.64 609.21,-365 550.26,-352.39 483.72,-338.86 432.32,-328.57"/>
<polygon fill="black" stroke="black" points="432.74,-325.08 422.25,-326.55 431.37,-331.94 432.74,-325.08"/>
</g>
<!-- lemmings.cli_main&#45;&gt;lemmings -->
<g id="edge26" class="edge">
<title>lemmings.cli_main&#45;&gt;lemmings</title>
<path fill="none" stroke="black" d="M673.73,-451.94C760.58,-445.94 913.75,-431.46 960.21,-402 1001.17,-376.02 1021.21,-360.01 1021.21,-311.5 1021.21,-311.5 1021.21,-311.5 1021.21,-163.5 1021.21,-109.22 986.78,-99.13 939.21,-73 894.12,-48.24 748.15,-31.08 672.94,-23.65"/>
<polygon fill="black" stroke="black" points="673.1,-20.15 662.81,-22.67 672.43,-27.12 673.1,-20.15"/>
</g>
<!-- lemmings.cli_main&#45;&gt;lemmings.base.user -->
<g id="edge27" class="edge">
<title>lemmings.cli_main&#45;&gt;lemmings.base.user</title>
<path fill="none" stroke="black" d="M594.3,-438.31C585.02,-429.42 573.55,-418.41 563.4,-408.67"/>
<polygon fill="black" stroke="black" points="565.6,-405.93 555.96,-401.53 560.75,-410.98 565.6,-405.93"/>
</g>
<!-- lemmings.cli_main&#45;&gt;lemmings.base.database -->
<g id="edge28" class="edge">
<title>lemmings.cli_main&#45;&gt;lemmings.base.database</title>
<path fill="none" stroke="black" d="M551.51,-438.41C464.04,-412.99 307.92,-364.42 261.21,-329 229.47,-304.93 227.5,-291.38 209.21,-256 185.66,-210.46 168.19,-153.03 159.15,-119.77"/>
<polygon fill="black" stroke="black" points="162.47,-118.63 156.52,-109.86 155.71,-120.43 162.47,-118.63"/>
</g>
<!-- lemmings.cli_main&#45;&gt;lemmings.chain.chain -->
<g id="edge29" class="edge">
<title>lemmings.cli_main&#45;&gt;lemmings.chain.chain</title>
<path fill="none" stroke="black" d="M630.36,-438.31C639.76,-429.42 651.39,-418.41 661.68,-408.67"/>
<polygon fill="black" stroke="black" points="664.37,-410.95 669.22,-401.53 659.55,-405.86 664.37,-410.95"/>
</g>
<!-- lemmings.cli_main&#45;&gt;lemmings.base.path_tool -->
<g id="edge30" class="edge">
<title>lemmings.cli_main&#45;&gt;lemmings.base.path_tool</title>
<path fill="none" stroke="black" d="M674.06,-455.34C770.36,-451.46 945.21,-428.34 945.21,-311.5 945.21,-311.5 945.21,-311.5 945.21,-236.5 945.21,-187.52 811.36,-138.85 724.91,-112.53"/>
<polygon fill="black" stroke="black" points="725.72,-109.12 715.13,-109.59 723.7,-115.82 725.72,-109.12"/>
</g>
<!-- lemmings.cli_main&#45;&gt;lemmings.base.machine -->
<g id="edge31" class="edge">
<title>lemmings.cli_main&#45;&gt;lemmings.base.machine</title>
<path fill="none" stroke="black" d="M673.97,-450.85C753.12,-443.9 884.94,-428.68 925.21,-402 965.04,-375.62 983.21,-359.27 983.21,-311.5 983.21,-311.5 983.21,-311.5 983.21,-236.5 983.21,-182.77 932.82,-139.78 895.27,-115.2"/>
<polygon fill="black" stroke="black" points="896.84,-112.05 886.52,-109.65 893.09,-117.96 896.84,-112.05"/>
</g>
</g>
</svg>
